verilog xil_defaultlib --include "../../../../TestAXIStrem.srcs/sources_1/bd/design_1/ipshared/ec67/hdl" --include "../../../../TestAXIStrem.srcs/sources_1/bd/design_1/ipshared/02c8/hdl/verilog" --include "../../../../TestAXIStrem.srcs/sources_1/bd/design_1/ipshared/1313/hdl" --include "../../../../TestAXIStrem.srcs/sources_1/bd/design_1/ipshared/e2dd/hdl/verilog" --include "../../../../TestAXIStrem.srcs/sources_1/bd/design_1/ipshared/0ab1/hdl" \
"../../../bd/design_1/ip/design_1_processing_system7_0_0/sim/design_1_processing_system7_0_0.v" \
"../../../bd/design_1/ip/design_1_axi_smc_0/bd_0/sim/bd_afc3.v" \

sv xil_defaultlib --include "../../../../TestAXIStrem.srcs/sources_1/bd/design_1/ipshared/ec67/hdl" --include "../../../../TestAXIStrem.srcs/sources_1/bd/design_1/ipshared/02c8/hdl/verilog" --include "../../../../TestAXIStrem.srcs/sources_1/bd/design_1/ipshared/1313/hdl" --include "../../../../TestAXIStrem.srcs/sources_1/bd/design_1/ipshared/e2dd/hdl/verilog" --include "../../../../TestAXIStrem.srcs/sources_1/bd/design_1/ipshared/0ab1/hdl" \
"../../../bd/design_1/ip/design_1_axi_smc_0/bd_0/ip/ip_10/sim/bd_afc3_s00a2s_0.sv" \
"../../../bd/design_1/ip/design_1_axi_smc_0/bd_0/ip/ip_19/sim/bd_afc3_s01a2s_0.sv" \
"../../../bd/design_1/ip/design_1_axi_smc_0/bd_0/ip/ip_25/sim/bd_afc3_s02a2s_0.sv" \
"../../../bd/design_1/ip/design_1_axi_smc_0/bd_0/ip/ip_29/sim/bd_afc3_m00s2a_0.sv" \
"../../../bd/design_1/ip/design_1_axi_smc_0/bd_0/ip/ip_35/sim/bd_afc3_m00e_0.sv" \
"../../../bd/design_1/ip/design_1_axi_smc_0/bd_0/ip/ip_30/sim/bd_afc3_m00arn_0.sv" \
"../../../bd/design_1/ip/design_1_axi_smc_0/bd_0/ip/ip_31/sim/bd_afc3_m00rn_0.sv" \
"../../../bd/design_1/ip/design_1_axi_smc_0/bd_0/ip/ip_32/sim/bd_afc3_m00awn_0.sv" \
"../../../bd/design_1/ip/design_1_axi_smc_0/bd_0/ip/ip_33/sim/bd_afc3_m00wn_0.sv" \
"../../../bd/design_1/ip/design_1_axi_smc_0/bd_0/ip/ip_34/sim/bd_afc3_m00bn_0.sv" \
"../../../bd/design_1/ip/design_1_axi_smc_0/bd_0/ip/ip_26/sim/bd_afc3_sawn_1.sv" \
"../../../bd/design_1/ip/design_1_axi_smc_0/bd_0/ip/ip_27/sim/bd_afc3_swn_1.sv" \
"../../../bd/design_1/ip/design_1_axi_smc_0/bd_0/ip/ip_28/sim/bd_afc3_sbn_1.sv" \
"../../../bd/design_1/ip/design_1_axi_smc_0/bd_0/ip/ip_22/sim/bd_afc3_s02mmu_0.sv" \
"../../../bd/design_1/ip/design_1_axi_smc_0/bd_0/ip/ip_23/sim/bd_afc3_s02tr_0.sv" \
"../../../bd/design_1/ip/design_1_axi_smc_0/bd_0/ip/ip_24/sim/bd_afc3_s02sic_0.sv" \
"../../../bd/design_1/ip/design_1_axi_smc_0/bd_0/ip/ip_20/sim/bd_afc3_sarn_1.sv" \
"../../../bd/design_1/ip/design_1_axi_smc_0/bd_0/ip/ip_21/sim/bd_afc3_srn_1.sv" \
"../../../bd/design_1/ip/design_1_axi_smc_0/bd_0/ip/ip_16/sim/bd_afc3_s01mmu_0.sv" \
"../../../bd/design_1/ip/design_1_axi_smc_0/bd_0/ip/ip_17/sim/bd_afc3_s01tr_0.sv" \
"../../../bd/design_1/ip/design_1_axi_smc_0/bd_0/ip/ip_18/sim/bd_afc3_s01sic_0.sv" \
"../../../bd/design_1/ip/design_1_axi_smc_0/bd_0/ip/ip_11/sim/bd_afc3_sarn_0.sv" \
"../../../bd/design_1/ip/design_1_axi_smc_0/bd_0/ip/ip_12/sim/bd_afc3_srn_0.sv" \
"../../../bd/design_1/ip/design_1_axi_smc_0/bd_0/ip/ip_13/sim/bd_afc3_sawn_0.sv" \
"../../../bd/design_1/ip/design_1_axi_smc_0/bd_0/ip/ip_14/sim/bd_afc3_swn_0.sv" \
"../../../bd/design_1/ip/design_1_axi_smc_0/bd_0/ip/ip_15/sim/bd_afc3_sbn_0.sv" \
"../../../bd/design_1/ip/design_1_axi_smc_0/bd_0/ip/ip_7/sim/bd_afc3_s00mmu_0.sv" \
"../../../bd/design_1/ip/design_1_axi_smc_0/bd_0/ip/ip_8/sim/bd_afc3_s00tr_0.sv" \
"../../../bd/design_1/ip/design_1_axi_smc_0/bd_0/ip/ip_9/sim/bd_afc3_s00sic_0.sv" \
"../../../bd/design_1/ip/design_1_axi_smc_0/bd_0/ip/ip_2/sim/bd_afc3_arsw_0.sv" \
"../../../bd/design_1/ip/design_1_axi_smc_0/bd_0/ip/ip_3/sim/bd_afc3_rsw_0.sv" \
"../../../bd/design_1/ip/design_1_axi_smc_0/bd_0/ip/ip_4/sim/bd_afc3_awsw_0.sv" \
"../../../bd/design_1/ip/design_1_axi_smc_0/bd_0/ip/ip_5/sim/bd_afc3_wsw_0.sv" \
"../../../bd/design_1/ip/design_1_axi_smc_0/bd_0/ip/ip_6/sim/bd_afc3_bsw_0.sv" \

verilog xil_defaultlib --include "../../../../TestAXIStrem.srcs/sources_1/bd/design_1/ipshared/ec67/hdl" --include "../../../../TestAXIStrem.srcs/sources_1/bd/design_1/ipshared/02c8/hdl/verilog" --include "../../../../TestAXIStrem.srcs/sources_1/bd/design_1/ipshared/1313/hdl" --include "../../../../TestAXIStrem.srcs/sources_1/bd/design_1/ipshared/e2dd/hdl/verilog" --include "../../../../TestAXIStrem.srcs/sources_1/bd/design_1/ipshared/0ab1/hdl" \
"../../../bd/design_1/ip/design_1_axi_smc_0/bd_0/ip/ip_0/sim/bd_afc3_one_0.v" \
"../../../bd/design_1/ip/design_1_axi_smc_0/sim/design_1_axi_smc_0.v" \
"../../../bd/design_1/ip/design_1_axis_data_fifo_0_0/sim/design_1_axis_data_fifo_0_0.v" \
"../../../bd/design_1/ip/design_1_xlconcat_0_0/sim/design_1_xlconcat_0_0.v" \
"../../../bd/design_1/sim/design_1.v" \
"../../../bd/design_1/ipshared/5456/hdl/axis_test_v1_0_S00_AXIS.v" \
"../../../bd/design_1/ipshared/5456/hdl/axis_test_v1_0_M00_AXIS.v" \

sv xil_defaultlib --include "../../../../TestAXIStrem.srcs/sources_1/bd/design_1/ipshared/ec67/hdl" --include "../../../../TestAXIStrem.srcs/sources_1/bd/design_1/ipshared/02c8/hdl/verilog" --include "../../../../TestAXIStrem.srcs/sources_1/bd/design_1/ipshared/1313/hdl" --include "../../../../TestAXIStrem.srcs/sources_1/bd/design_1/ipshared/e2dd/hdl/verilog" --include "../../../../TestAXIStrem.srcs/sources_1/bd/design_1/ipshared/0ab1/hdl" \
"../../../bd/design_1/ipshared/5456/src/add_one.sv" \

verilog xil_defaultlib --include "../../../../TestAXIStrem.srcs/sources_1/bd/design_1/ipshared/ec67/hdl" --include "../../../../TestAXIStrem.srcs/sources_1/bd/design_1/ipshared/02c8/hdl/verilog" --include "../../../../TestAXIStrem.srcs/sources_1/bd/design_1/ipshared/1313/hdl" --include "../../../../TestAXIStrem.srcs/sources_1/bd/design_1/ipshared/e2dd/hdl/verilog" --include "../../../../TestAXIStrem.srcs/sources_1/bd/design_1/ipshared/0ab1/hdl" \
"../../../bd/design_1/ipshared/5456/hdl/axis_test_v1_0.v" \
"../../../bd/design_1/ip/design_1_axis_test_0_0/sim/design_1_axis_test_0_0.v" \
"../../../bd/design_1/ip/design_1_auto_pc_0/sim/design_1_auto_pc_0.v" \

verilog xil_defaultlib "glbl.v"

nosort
